<?xml version="1.0" encoding="UTF-8" standalone="no"?>
<!-- Generator: Adobe Illustrator 19.0.0, SVG Export Plug-In . SVG Version: 6.00 Build 0)  -->

<svg
   xmlns:dc="http://purl.org/dc/elements/1.1/"
   xmlns:cc="http://creativecommons.org/ns#"
   xmlns:rdf="http://www.w3.org/1999/02/22-rdf-syntax-ns#"
   xmlns:svg="http://www.w3.org/2000/svg"
   xmlns="http://www.w3.org/2000/svg"
   xmlns:sodipodi="http://sodipodi.sourceforge.net/DTD/sodipodi-0.dtd"
   xmlns:inkscape="http://www.inkscape.org/namespaces/inkscape"
   version="1.1"
   id="Capa_1"
   x="0px"
   y="0px"
   viewBox="0 0 512 512"
   style="enable-background:new 0 0 512 512;"
   xml:space="preserve"
   sodipodi:docname="wanted.svg"
   inkscape:version="0.92.3 (2405546, 2018-03-11)"><metadata
   id="metadata129"><rdf:RDF><cc:Work
       rdf:about=""><dc:format>image/svg+xml</dc:format><dc:type
         rdf:resource="http://purl.org/dc/dcmitype/StillImage" /></cc:Work></rdf:RDF></metadata><defs
   id="defs127" /><sodipodi:namedview
   pagecolor="#ffffff"
   bordercolor="#666666"
   borderopacity="1"
   objecttolerance="10"
   gridtolerance="10"
   guidetolerance="10"
   inkscape:pageopacity="0"
   inkscape:pageshadow="2"
   inkscape:window-width="1920"
   inkscape:window-height="1017"
   id="namedview125"
   showgrid="false"
   inkscape:zoom="0.921875"
   inkscape:cx="245.28639"
   inkscape:cy="243.82302"
   inkscape:window-x="1358"
   inkscape:window-y="-8"
   inkscape:window-maximized="1"
   inkscape:current-layer="Capa_1" />


























<g
   id="g94">
</g>
<g
   id="g96">
</g>
<g
   id="g98">
</g>
<g
   id="g100">
</g>
<g
   id="g102">
</g>
<g
   id="g104">
</g>
<g
   id="g106">
</g>
<g
   id="g108">
</g>
<g
   id="g110">
</g>
<g
   id="g112">
</g>
<g
   id="g114">
</g>
<g
   id="g116">
</g>
<g
   id="g118">
</g>
<g
   id="g120">
</g>
<g
   id="g122">
</g>
<g
   id="g5792"
   transform="matrix(2.6440678,0,0,2.6440678,179.99425,-288.37461)"><g
     transform="matrix(0.375,0,0,0.375,-67.254237,109.42373)"
     id="g5668"><circle
       style="fill:#199ed8;fill-opacity:1"
       cx="256"
       cy="256"
       r="256"
       id="circle2" /><path
       inkscape:connector-curvature="0"
       style="fill:#e5e5e5"
       d="m 429.634,28.912 v 415.19 c -10.209,9.446 -21.18,18.045 -32.82,25.736 -3.657,2.403 -7.367,4.723 -11.149,6.938 -3.479,2.058 -7.022,4.023 -10.606,5.914 -4.305,2.267 -8.694,4.42 -13.134,6.437 C 329.648,503.818 293.787,512 256.003,512 c -34.513,0 -67.427,-6.823 -97.468,-19.216 h -0.01 c -2.32,-0.951 -4.618,-1.944 -6.896,-2.957 -2.382,-1.066 -4.744,-2.163 -7.095,-3.302 -6.593,-3.197 -13.03,-6.666 -19.289,-10.397 -15.412,-9.174 -29.769,-19.916 -42.872,-32.026 V 28.912 c 0,-9.697 7.858,-17.554 17.554,-17.554 H 412.08 c 9.696,0 17.554,7.858 17.554,17.554 z"
       id="path4" /><rect
       x="97.822998"
       y="30.365"
       style="fill:#f43f7e"
       width="316.34299"
       height="388.85901"
       id="rect6" /><g
       id="g92">
	<path
   inkscape:connector-curvature="0"
   style="fill:#f43f7e"
   d="m 172.965,440.414 c -1.703,0 -3.124,0.564 -3.553,2.058 l -10.804,36.456 -5.611,-24.022 c -0.428,-1.923 -2.915,-2.915 -5.329,-2.915 -2.414,0 -4.901,0.993 -5.329,2.915 l -5.622,24.022 -10.794,-36.456 c -0.428,-1.494 -1.849,-2.058 -3.553,-2.058 -3.197,0 -7.178,1.985 -7.178,4.409 0,0.355 0.063,0.7 0.136,0.919 l 9.916,30.386 c 6.259,3.73 12.696,7.199 19.289,10.397 l 3.135,-14.273 3.688,16.844 c 0.063,0.261 0.146,0.502 0.272,0.731 2.278,1.014 4.577,2.006 6.896,2.957 h 0.01 c 3.271,0 6.468,-1.202 7.325,-3.689 l 14.137,-43.353 c 0.073,-0.219 0.146,-0.564 0.146,-0.919 0.002,-2.424 -3.979,-4.409 -7.177,-4.409 z"
   id="path80" />
	<path
   inkscape:connector-curvature="0"
   style="fill:#f43f7e"
   d="m 222.535,487.027 -13.291,-43.342 c -0.784,-2.487 -3.981,-3.699 -7.252,-3.699 -3.271,0 -6.457,1.212 -7.241,3.699 l -13.218,43.342 c -0.073,0.282 -0.146,0.575 -0.146,0.784 0,2.633 4.054,4.545 7.105,4.545 1.776,0 3.197,-0.564 3.626,-2.058 l 2.414,-8.882 h 14.994 l 2.424,8.882 c 0.418,1.494 1.849,2.058 3.626,2.058 3.051,0 7.105,-1.912 7.105,-4.545 0,-0.209 -0.073,-0.502 -0.146,-0.784 z m -25.725,-14.138 5.183,-19.049 5.193,19.049 z"
   id="path82" />
	<path
   inkscape:connector-curvature="0"
   style="fill:#f43f7e"
   d="m 261.144,440.414 c -2.769,0 -5.538,0.993 -5.538,3.333 v 24.168 l -11.515,-21.964 c -2.696,-5.183 -4.19,-5.538 -8.171,-5.538 -2.769,0 -5.548,1.066 -5.548,3.406 v 45.129 c 0,2.278 2.779,3.406 5.548,3.406 2.769,0 5.538,-1.128 5.538,-3.406 V 464.79 l 13.511,24.586 c 1.348,2.487 3.626,2.978 6.175,2.978 2.779,0 5.548,-1.128 5.548,-3.406 v -45.202 c 0,-2.339 -2.769,-3.332 -5.548,-3.332 z"
   id="path84" />
	<path
   inkscape:connector-curvature="0"
   style="fill:#f43f7e"
   d="m 308.718,440.414 h -30.699 c -2.351,0 -3.344,2.56 -3.344,4.901 0,2.696 1.212,5.047 3.344,5.047 h 9.801 v 38.588 c 0,2.278 2.769,3.406 5.548,3.406 2.769,0 5.538,-1.128 5.538,-3.406 v -38.588 h 9.812 c 2.132,0 3.333,-2.351 3.333,-5.047 0,-2.341 -0.992,-4.901 -3.333,-4.901 z"
   id="path86" />
	<path
   inkscape:connector-curvature="0"
   style="fill:#f43f7e"
   d="m 350.169,482.691 h -19.048 v -12.079 h 10.658 c 2.351,0 3.344,-2.267 3.344,-4.19 0,-2.278 -1.212,-4.336 -3.344,-4.336 H 331.121 V 450.08 h 19.048 c 2.132,0 3.333,-2.278 3.333,-4.901 0,-2.278 -0.993,-4.765 -3.333,-4.765 h -25.297 c -2.424,0 -4.838,1.139 -4.838,3.406 v 45.129 c 0,2.278 2.414,3.406 4.838,3.406 h 25.297 c 2.341,0 3.333,-2.487 3.333,-4.754 10e-4,-2.633 -1.201,-4.91 -3.333,-4.91 z"
   id="path88" />
	<path
   inkscape:connector-curvature="0"
   style="fill:#f43f7e"
   d="m 379.322,440.414 h -12.57 c -2.915,0 -4.838,1.557 -4.838,3.333 v 45.275 c 0,0.031 0,0.073 0.01,0.104 4.441,-2.017 8.829,-4.169 13.134,-6.437 H 373 v -32.611 h 6.322 c 3.981,0 6.405,2.267 6.405,7.105 v 18.401 c 0,0.418 -0.021,0.815 -0.063,1.191 3.783,-2.215 7.492,-4.535 11.149,-6.938 v -12.654 c 0.001,-12.224 -7.679,-16.769 -17.491,-16.769 z"
   id="path90" />
</g><g
       id="g1828"
       transform="matrix(5.5821157,0,0,5.5821157,94.113136,62.913149)"><path
         id="path1737"
         d="M 39,22.866 V 11.219 C 39,6.149 34.5,2 29,2 23.5,2 19,6.149 19,11.219 v 11.647"
         style="fill:none;stroke:#fbd490;stroke-width:4;stroke-linecap:round;stroke-linejoin:round;stroke-miterlimit:10"
         inkscape:connector-curvature="0" /><circle
         id="circle1739"
         r="19"
         cy="39"
         cx="29"
         style="fill:#7383bf" /><path
         id="path1741"
         d="M 48,39 C 48,28.507 39.493,20 29,20 v 38 c 10.493,0 19,-8.507 19,-19 z"
         style="fill:#556080"
         inkscape:connector-curvature="0" /><circle
         id="circle1743"
         r="8"
         cy="39"
         cx="29"
         style="fill:#424a60;stroke:#d8a852;stroke-width:2;stroke-linecap:round;stroke-linejoin:round;stroke-miterlimit:10" /><line
         id="line1745"
         y2="27"
         x2="29"
         y1="31"
         x1="29"
         style="fill:none;stroke:#d8a852;stroke-width:2;stroke-linecap:round;stroke-linejoin:round;stroke-miterlimit:10" /><line
         id="line1747"
         y2="47"
         x2="29"
         y1="51"
         x1="29"
         style="fill:none;stroke:#d8a852;stroke-width:2;stroke-linecap:round;stroke-linejoin:round;stroke-miterlimit:10" /><line
         id="line1749"
         y2="47.485001"
         x2="37.485001"
         y1="44.657001"
         x1="34.657001"
         style="fill:none;stroke:#d8a852;stroke-width:2;stroke-linecap:round;stroke-linejoin:round;stroke-miterlimit:10" /><line
         id="line1751"
         y2="44.657001"
         x2="23.343"
         y1="47.485001"
         x1="20.514999"
         style="fill:none;stroke:#d8a852;stroke-width:2;stroke-linecap:round;stroke-linejoin:round;stroke-miterlimit:10" /><line
         id="line1753"
         y2="30.514999"
         x2="37.485001"
         y1="33.342999"
         x1="34.657001"
         style="fill:none;stroke:#d8a852;stroke-width:2;stroke-linecap:round;stroke-linejoin:round;stroke-miterlimit:10" /><line
         id="line1755"
         y2="33.342999"
         x2="23.343"
         y1="30.514999"
         x1="20.514999"
         style="fill:none;stroke:#d8a852;stroke-width:2;stroke-linecap:round;stroke-linejoin:round;stroke-miterlimit:10" /><line
         id="line1757"
         y2="39"
         x2="41"
         y1="39"
         x1="37"
         style="fill:none;stroke:#d8a852;stroke-width:2;stroke-linecap:round;stroke-linejoin:round;stroke-miterlimit:10" /><line
         id="line1759"
         y2="39"
         x2="21"
         y1="39"
         x1="17"
         style="fill:none;stroke:#d8a852;stroke-width:2;stroke-linecap:round;stroke-linejoin:round;stroke-miterlimit:10" /><circle
         id="circle1761"
         r="4"
         cy="39"
         cx="29"
         style="fill:#556080" /><g
         id="g1763">
</g><g
         id="g1765">
</g><g
         id="g1767">
</g><g
         id="g1769">
</g><g
         id="g1771">
</g><g
         id="g1773">
</g><g
         id="g1775">
</g><g
         id="g1777">
</g><g
         id="g1779">
</g><g
         id="g1781">
</g><g
         id="g1783">
</g><g
         id="g1785">
</g><g
         id="g1787">
</g><g
         id="g1789">
</g><g
         id="g1791">
</g></g></g></g></svg>