<?xml version="1.0" encoding="UTF-8" standalone="no"?>
<!-- Generator: Adobe Illustrator 19.0.0, SVG Export Plug-In . SVG Version: 6.00 Build 0)  -->

<svg
   xmlns:dc="http://purl.org/dc/elements/1.1/"
   xmlns:cc="http://creativecommons.org/ns#"
   xmlns:rdf="http://www.w3.org/1999/02/22-rdf-syntax-ns#"
   xmlns:svg="http://www.w3.org/2000/svg"
   xmlns="http://www.w3.org/2000/svg"
   xmlns:sodipodi="http://sodipodi.sourceforge.net/DTD/sodipodi-0.dtd"
   xmlns:inkscape="http://www.inkscape.org/namespaces/inkscape"
   version="1.1"
   id="Capa_1"
   x="0px"
   y="0px"
   viewBox="0 0 200 200"
   xml:space="preserve"
   sodipodi:docname="teacherRotermeller.svg"
   inkscape:version="0.92.3 (2405546, 2018-03-11)"
   width="200"
   height="200"
   inkscape:export-filename="C:\Users\lorie\Pictures\sabanabackground.png"
   inkscape:export-xdpi="96"
   inkscape:export-ydpi="96"><metadata
   id="metadata129"><rdf:RDF><cc:Work
       rdf:about=""><dc:format>image/svg+xml</dc:format><dc:type
         rdf:resource="http://purl.org/dc/dcmitype/StillImage" /><dc:title></dc:title></cc:Work></rdf:RDF></metadata><defs
   id="defs127"><clipPath
     clipPathUnits="userSpaceOnUse"
     id="clipPath5809"><rect
       style="fill:#199ed8;fill-opacity:1"
       id="rect5811"
       width="496.81357"
       height="325.42374"
       x="258.16949"
       y="47.322033" /></clipPath><clipPath
     clipPathUnits="userSpaceOnUse"
     id="clipPath5817"><rect
       style="fill:#199ed8;fill-opacity:1"
       id="rect5819"
       width="403.52542"
       height="292.88135"
       x="783.18646"
       y="47.322033" /></clipPath><clipPath
     clipPathUnits="userSpaceOnUse"
     id="clipPath5825"><rect
       style="fill:#199ed8;fill-opacity:1"
       id="rect5827"
       width="329.76273"
       height="275.52542"
       x="1169.356"
       y="277.28815" /></clipPath><clipPath
     clipPathUnits="userSpaceOnUse"
     id="clipPath5833"><rect
       style="fill:#199ed8;fill-opacity:1"
       id="rect5835"
       width="342.77966"
       height="245.15254"
       x="145.35593"
       y="426.98306" /></clipPath><clipPath
     clipPathUnits="userSpaceOnUse"
     id="clipPath5841"><rect
       style="fill:#199ed8;fill-opacity:1;stroke-width:1.07789755"
       id="rect5843"
       width="331.93219"
       height="275.52542"
       x="364.47458"
       y="-818.30505" /></clipPath><clipPath
     clipPathUnits="userSpaceOnUse"
     id="clipPath5871"><rect
       style="fill:#199ed8;fill-opacity:1"
       id="rect5873"
       width="305.89832"
       height="370.98306"
       x="702.91528"
       y="-902.91528" /></clipPath><clipPath
     clipPathUnits="userSpaceOnUse"
     id="clipPath5877"><rect
       style="fill:#199ed8;fill-opacity:1"
       id="rect5879"
       width="312.40677"
       height="336.27118"
       x="987.11865"
       y="-840" /></clipPath><clipPath
     clipPathUnits="userSpaceOnUse"
     id="clipPath5883"><rect
       style="fill:#199ed8;fill-opacity:1"
       id="rect5885"
       width="260.33899"
       height="308.06781"
       x="1280"
       y="-835.66101" /></clipPath><clipPath
     clipPathUnits="userSpaceOnUse"
     id="clipPath5889"><rect
       style="fill:#199ed8;fill-opacity:1"
       id="rect5891"
       width="325.42374"
       height="282.03391"
       x="1542.5084"
       y="-813.96613" /></clipPath><clipPath
     clipPathUnits="userSpaceOnUse"
     id="clipPath5895"><rect
       style="fill:#199ed8;fill-opacity:1"
       id="rect5897"
       width="327.59323"
       height="286.37289"
       x="-58.576271"
       y="-479.86441" /></clipPath><clipPath
     clipPathUnits="userSpaceOnUse"
     id="clipPath5901"><rect
       style="fill:#199ed8;fill-opacity:1;stroke-width:1.0777204"
       id="rect5903"
       width="284.20337"
       height="300.47458"
       x="269.01694"
       y="-496.13559" /></clipPath><clipPath
     clipPathUnits="userSpaceOnUse"
     id="clipPath5907"><rect
       style="fill:#199ed8;fill-opacity:1"
       id="rect5909"
       width="167.97981"
       height="246.98401"
       x="852.93854"
       y="-454.82919" /></clipPath><clipPath
     clipPathUnits="userSpaceOnUse"
     id="clipPath5913"><rect
       style="fill:#199ed8;fill-opacity:1"
       id="rect5915"
       width="181.01933"
       height="225.50714"
       x="1060.037"
       y="-417.24469" /></clipPath><clipPath
     clipPathUnits="userSpaceOnUse"
     id="clipPath5919"><rect
       style="fill:#199ed8;fill-opacity:1"
       id="rect5921"
       width="214.76871"
       height="181.01933"
       x="1254.8629"
       y="-389.63156" /></clipPath><clipPath
     clipPathUnits="userSpaceOnUse"
     id="clipPath5925"><rect
       style="fill:#199ed8;fill-opacity:1"
       id="rect5927"
       width="227.0412"
       height="167.21278"
       x="1692.0706"
       y="-374.29092" /></clipPath></defs><sodipodi:namedview
   pagecolor="#ffffff"
   bordercolor="#666666"
   borderopacity="1"
   objecttolerance="10"
   gridtolerance="10"
   guidetolerance="10"
   inkscape:pageopacity="0"
   inkscape:pageshadow="2"
   inkscape:window-width="1920"
   inkscape:window-height="1017"
   id="namedview125"
   showgrid="false"
   inkscape:zoom="2.6074563"
   inkscape:cx="115.37422"
   inkscape:cy="142.91437"
   inkscape:window-x="1358"
   inkscape:window-y="-8"
   inkscape:window-maximized="1"
   inkscape:current-layer="Capa_1" />


























<g
   id="g94"
   transform="translate(0,-312)">
</g>
<g
   id="g96"
   transform="translate(0,-312)">
</g>
<g
   id="g98"
   transform="translate(0,-312)">
</g>
<g
   id="g100"
   transform="translate(0,-312)">
</g>
<g
   id="g102"
   transform="translate(0,-312)">
</g>
<g
   id="g104"
   transform="translate(0,-312)">
</g>
<g
   id="g106"
   transform="translate(0,-312)">
</g>
<g
   id="g108"
   transform="translate(0,-312)">
</g>
<g
   id="g110"
   transform="translate(0,-312)">
</g>
<g
   id="g112"
   transform="translate(0,-312)">
</g>
<g
   id="g114"
   transform="translate(0,-312)">
</g>
<g
   id="g116"
   transform="translate(0,-312)">
</g>
<g
   id="g118"
   transform="translate(0,-312)">
</g>
<g
   id="g120"
   transform="translate(0,-312)">
</g>
<g
   id="g122"
   transform="translate(0,-312)">
</g>
<g
   id="g6046"
   transform="matrix(0.3836031,0,0,0.3836031,2.1694773,1.4257167)"
   inkscape:transform-center-x="-85.719039"
   inkscape:transform-center-y="-59.087883"><circle
     id="circle5940"
     r="256"
     cy="256"
     cx="256"
     style="fill:#ffffff;fill-opacity:1" /><path
     id="path5942"
     d="M 232.441,377.823 349.139,494.521 C 435.755,460.672 499.403,381.009 510.317,285.325 L 303.752,78.76 Z"
     style="fill:#d0d0d0;fill-opacity:1"
     inkscape:connector-curvature="0" /><rect
     id="rect5944"
     height="104.296"
     width="85.333"
     style="fill:#fcd088"
     y="292.21899"
     x="213.33299" /><rect
     id="rect5946"
     height="104.296"
     width="43.236"
     style="fill:#ddab62"
     y="292.21899"
     x="255.431" /><path
     id="path5948"
     d="m 357.764,365.671 -45.22,-9.044 -7.992,-11.666 c -1.496,-2.184 -4.327,-3.007 -6.759,-1.965 L 256,390.494 214.457,343.014 c -2.415,-1.053 -5.239,-0.262 -6.754,1.893 l -8.247,11.719 -45.22,9.044 c -23.023,4.606 -39.596,24.821 -39.596,48.3 v 55.475 C 155.148,496.328 203.742,512 256,512 c 52.258,0 100.852,-15.672 141.36,-42.555 V 413.97 c 0,-23.479 -16.573,-43.694 -39.596,-48.299 z"
     style="fill:#156200;fill-opacity:1"
     inkscape:connector-curvature="0" /><path
     id="path5950"
     d="m 357.764,365.671 -45.22,-9.044 -7.992,-11.666 c -1.496,-2.184 -4.327,-3.007 -6.759,-1.965 L 256,390.494 l -0.574,-0.657 v 122.151 c 0.191,0 0.381,0.01 0.574,0.01 52.258,0 100.852,-15.672 141.36,-42.555 v -55.475 c 0,-23.477 -16.573,-43.692 -39.596,-48.297 z"
     style="fill:#0c3900;fill-opacity:1"
     inkscape:connector-curvature="0" /><path
     id="path5952"
     d="m 347.531,205.44 c 0.459,-4.244 0.698,-8.428 0.698,-12.509 0,-53.974 -41.293,-97.728 -92.229,-97.728 -50.936,0 -92.229,43.754 -92.229,97.728 0,4.08 0.24,8.264 0.698,12.509 -8.945,2.326 -13.202,16.087 -9.506,30.817 3.708,14.776 14.014,24.921 23.018,22.661 0.821,-0.205 1.586,-0.538 2.326,-0.927 16.667,33.452 44.351,60.594 75.693,60.594 31.342,0 59.027,-27.139 75.693,-60.594 0.74,0.39 1.505,0.722 2.326,0.927 9.004,2.26 19.309,-7.885 23.018,-22.661 3.697,-14.73 -0.559,-28.494 -9.506,-30.817 z"
     style="fill:#ffedb5"
     inkscape:connector-curvature="0" /><path
     id="path5954"
     d="m 347.531,205.44 c 0.459,-4.244 0.698,-8.428 0.698,-12.509 0,-53.974 -41.293,-97.728 -92.229,-97.728 -0.193,0 -0.381,0.014 -0.574,0.016 v 223.349 c 0.191,0.002 0.383,0.016 0.574,0.016 31.342,0 59.027,-27.139 75.693,-60.594 0.74,0.39 1.505,0.722 2.326,0.927 9.004,2.26 19.309,-7.885 23.018,-22.661 3.697,-14.729 -0.559,-28.493 -9.506,-30.816 z"
     style="fill:#e8cf89"
     inkscape:connector-curvature="0" /><g
     id="g5962">
	<circle
   id="circle5956"
   r="4.3099999"
   cy="413.186"
   cx="256"
   style="fill:#ffffff" />
	<circle
   id="circle5958"
   r="4.3099999"
   cy="430.99399"
   cx="256"
   style="fill:#ffffff" />
	<path
   id="path5960"
   d="m 256,390.608 -40.262,-51.053 c -1.714,-2.007 -4.817,-2.003 -6.527,0.007 l -15.56,18.292 33.57,53.713 c 2.796,4.472 9.266,4.596 12.229,0.233 z"
   style="fill:#96e3ff;fill-opacity:1"
   inkscape:connector-curvature="0" />
</g><path
     id="path5964"
     d="m 256,390.608 40.262,-51.053 c 1.714,-2.007 4.817,-2.003 6.527,0.007 l 15.56,18.292 -33.57,53.713 c -2.796,4.472 -9.266,4.596 -12.229,0.233 z"
     style="fill:#7dddff;fill-opacity:1"
     inkscape:connector-curvature="0" /><path
     id="path5966"
     d="m 295.684,200.416 c -12.266,0 -22.566,8.459 -25.447,19.842 h -28.472 c -2.882,-11.383 -13.181,-19.842 -25.447,-19.842 -10.85,0 -20.183,6.611 -24.188,16.015 l -21.306,-21.307 c -1.684,-1.684 -4.411,-1.684 -6.094,0 -1.684,1.683 -1.684,4.411 0,6.094 l 25.319,25.321 c 0,0.052 -0.009,0.103 -0.009,0.155 0,14.489 11.788,26.277 26.277,26.277 13.753,0 25.052,-10.624 26.167,-24.095 h 27.033 c 1.115,13.469 12.414,24.095 26.167,24.095 14.489,0 26.277,-11.788 26.277,-26.277 0,-14.489 -11.787,-26.278 -26.277,-26.278 z m -79.367,43.936 c -9.737,0 -17.658,-7.921 -17.658,-17.658 0,-9.737 7.921,-17.658 17.658,-17.658 9.737,0 17.658,7.921 17.658,17.658 0,9.736 -7.921,17.658 -17.658,17.658 z m 79.367,0 c -9.737,0 -17.658,-7.921 -17.658,-17.658 0,-9.737 7.921,-17.658 17.658,-17.658 9.737,0 17.658,7.921 17.658,17.658 0,9.736 -7.921,17.658 -17.658,17.658 z"
     style="fill:#444444"
     inkscape:connector-curvature="0" /><path
     id="path5968"
     d="m 295.684,200.416 c -12.266,0 -22.566,8.459 -25.447,19.842 h -14.81 v 8.62 h 14.091 c 1.115,13.469 12.414,24.095 26.167,24.095 14.489,0 26.277,-11.788 26.277,-26.277 0,-14.489 -11.788,-26.28 -26.278,-26.28 z m 0,43.936 c -9.737,0 -17.658,-7.921 -17.658,-17.658 0,-9.737 7.921,-17.658 17.658,-17.658 9.737,0 17.658,7.921 17.658,17.658 0,9.736 -7.921,17.658 -17.658,17.658 z"
     style="fill:#333333"
     inkscape:connector-curvature="0" /><path
     id="path5970"
     d="m 318.185,228.524 c -1.103,0 -2.205,-0.421 -3.048,-1.262 -1.684,-1.683 -1.684,-4.411 0,-6.094 l 26.041,-26.043 c 1.684,-1.684 4.411,-1.684 6.094,0 1.684,1.683 1.684,4.411 0,6.094 l -26.041,26.043 c -0.841,0.84 -1.945,1.262 -3.046,1.262 z"
     style="fill:#444444"
     inkscape:connector-curvature="0" /><path
     id="path5972"
     d="m 350.817,144.52 c -12.495,-20.396 -29.091,-38.253 -49.652,-48.909 2.367,-3.35 3.681,-7.011 3.681,-10.854 0,-15.869 -22.254,-28.732 -49.705,-28.732 -27.451,0 -49.705,12.864 -49.705,28.732 0,4.277 1.629,8.332 4.529,11.979 -0.507,0.229 -1.003,0.428 -1.512,0.664 -66.801,31.03 -57.894,129.724 -53.872,119.38 4.022,-10.343 9.892,-11.342 9.892,-11.342 34.887,-16.084 56.477,-50.288 56.477,-50.288 0,0 119.524,22.699 102.285,154.864 -0.001,10e-4 75.453,-87.361 27.582,-165.494 z"
     style="fill:#cb3b00;fill-opacity:1"
     inkscape:connector-curvature="0" /><path
     id="path5974"
     d="m 350.817,144.52 c -12.495,-20.396 -29.091,-38.253 -49.652,-48.909 2.367,-3.35 3.681,-7.011 3.681,-10.854 0,-15.812 -22.1,-28.638 -49.419,-28.727 v 111.976 c 33.823,17.648 78.845,57.392 67.806,142.008 10e-4,10e-4 75.455,-87.361 27.584,-165.494 z"
     style="fill:#b23400;fill-opacity:1"
     inkscape:connector-curvature="0" /><g
     id="g5976">
</g><g
     id="g5978">
</g><g
     id="g5980">
</g><g
     id="g5982">
</g><g
     id="g5984">
</g><g
     id="g5986">
</g><g
     id="g5988">
</g><g
     id="g5990">
</g><g
     id="g5992">
</g><g
     id="g5994">
</g><g
     id="g5996">
</g><g
     id="g5998">
</g><g
     id="g6000">
</g><g
     id="g6002">
</g><g
     id="g6004">
</g></g></svg>